calculator.vcd
$comment
Copyright (C) 1991-2010 Altera Corporation
Your use of Altera Corporation's design tools, logic functions 
and other software and tools, and its AMPP partner logic 
functions, and any output files from any of the foregoing 
(including device programming or simulation files), and any 
associated documentation or information are expressly subject 
to the terms and conditions of the Altera Program License 
Subscription Agreement, Altera MegaCore Function License 
Agreement, or other applicable license agreement, including, 
without limitation, that your use is for the sole purpose of 
programming logic devices manufactured by Altera and sold by 
Altera or its authorized distributors.  Please refer to the 
applicable agreement for further details.
$end

$date 
  09/23/2016 22:12:47 
$end
$version 
 QUARTUS_VCD_EXPORT 1.0 
$end
$timescale
  1 ps
$end
$scope module Fsmanddatapath $end
$var reg 1 ! clk $end
$var reg 1 " debug $end
$var reg 4 # DIN1[3:0] $end
$var reg 3 $ MOP1[2:0] $end
$var reg 1 % RunFSM $end
$var reg 8 & segmentdisplay[7:0] $end
$upscope $end
$enddefinitions $end
#0
$dumpvars
0!
0"
b10 #
b10 $
1%
b11 &
$end
#5000
1!
#10000
0!
#15000
1!
#20000
0!
#25000
1!
#30000
0!
#35000
1!
#40000
0!
#45000
1!
#50000
0!
b0 #
b0 $
0%
#55000
1!
#60000
0!
#65000
1!
#70000
0!
#75000
1!
#80000
0!
b11 #
b11 $
1%
#85000
1!
#90000
0!
#95000
1!
#100000
0!
#105000
1!
#110000
0!
#115000
1!
#120000
0!
#125000
1!
b1101 &
#130000
0!
b0 #
b0 $
0%
#135000
1!
#140000
0!
#145000
1!
#150000
0!
#155000
1!
#160000
0!
#165000
1!
#170000
0!
#175000
1!
#180000
0!
#185000
1!
#190000
0!
#195000
1!
#200000
0!
#205000
1!
#210000
0!
#215000
1!
#220000
0!
#225000
1!
#230000
0!
b111 $
1%
#235000
1!
#240000
0!
#245000
1!
#250000
0!
#255000
1!
#260000
0!
#265000
1!
#270000
0!
#275000
1!
b100101 &
#280000
0!
#285000
1!
#290000
0!
b0 $
0%
